Homework for March 29, 2021 - Reagen Schulenberg
…
I need to clean up my text. So, I separated the Result column into two different ones, the outcome (W or L) and the actual score of the game. Then I needed to get rid of the parentheses around the score. Lastly, I needed to separate the score into two different colums, the TeamScore and the Opponent score.

I then used mutate to create a new dataframe, the differential between the TeamScore and OpponentScore.

badlogs %>% separate(Result, into=c("Outcome", "Score"), sep=" ") %>% mutate(Score=gsub(")", "", Score)) %>% mutate(Score=gsub("\\(", "", Score)) %>%
  separate(Score, into=c("TeamScore", "OpponentScore"), sep="-") %>% mutate(TeamScore = as.numeric(TeamScore), OpponentScore = as.numeric(OpponentScore)) %>%
  mutate(
    Differential = TeamScore - OpponentScore)

## # A tibble: 1,662 x 54
##     Game Date  HomeAway Opponent Outcome TeamScore OpponentScore PassingCmp
##    <dbl> <chr> <chr>    <chr>    <chr>       <dbl>         <dbl>      <dbl>
##  1     1 8/24… N        Miami (… W              24            20         17
##  2     2 9/7/… <NA>     Tenness… W              45             0         30
##  3     3 9/14… @        Kentucky W              29            21         21
##  4     4 9/21… <NA>     Tenness… W              34             3         24
##  5     5 9/28… <NA>     Towson   W              38             0         24
##  6     6 10/5… <NA>     Auburn   W              24            13         25
##  7     7 10/1… @        Louisia… L              28            42         24
##  8     8 10/1… @        South C… W              38            27         21
##  9     9 11/2… N        Georgia  L              17            24         21
## 10    10 11/9… <NA>     Vanderb… W              56             0         27
## # … with 1,652 more rows, and 46 more variables: PassingAtt <dbl>,
## #   PassingPct <dbl>, PassingYds <dbl>, PassingTD <dbl>, RushingAtt <dbl>,
## #   RushingYds <dbl>, RushingAvg <dbl>, RushingTD <dbl>, OffensivePlays <dbl>,
## #   OffensiveYards <dbl>, OffenseAvg <dbl>, FirstDownPass <dbl>,
## #   FirstDownRush <dbl>, FirstDownPen <dbl>, FirstDownTotal <dbl>,
## #   Penalties <dbl>, PenaltyYds <dbl>, Fumbles <dbl>, Interceptions <dbl>,
## #   TotalTurnovers <dbl>, TeamFull <chr>, TeamURL <chr>, DefPassingCmp <dbl>,
## #   DefPassingAtt <dbl>, DefPassingPct <dbl>, DefPassingYds <dbl>,
## #   DefPassingTD <dbl>, DefRushingAtt <dbl>, DefRushingYds <dbl>,
…
